<?xml version="1.0" standalone="no"?>
<!DOCTYPE svg PUBLIC "-//W3C//DTD SVG 20010904//EN"
 "http://www.w3.org/TR/2001/REC-SVG-20010904/DTD/svg10.dtd">
<svg version="1.0" xmlns="http://www.w3.org/2000/svg"
 width="1510.000000pt" height="1510.000000pt" viewBox="0 0 1510.000000 1510.000000"
 preserveAspectRatio="xMidYMid meet">
<metadata>
Created by potrace 1.11, written by Peter Selinger 2001-2013
</metadata>
<g transform="translate(0.000000,1510.000000) scale(0.100000,-0.100000)"
fill="#000000" stroke="none">
<path d="M5207 10323 c-2 -1 -56 -10 -122 -18 -22 -2 -87 -16 -145 -31 -58
-14 -112 -27 -120 -28 -9 -1 -21 -5 -28 -10 -6 -4 -12 -5 -12 -2 0 3 -12 1
-27 -5 -16 -6 -37 -13 -49 -15 -12 -2 -66 -18 -120 -35 -54 -17 -106 -32 -114
-34 -50 -11 -282 -90 -323 -111 -16 -8 -34 -14 -41 -14 -11 0 -59 -18 -166
-63 -14 -5 -31 -11 -38 -13 -8 -1 -38 -14 -68 -28 -30 -14 -57 -26 -59 -26 -2
0 -30 -12 -62 -26 -568 -254 -1023 -508 -1548 -863 -130 -88 -263 -183 -287
-204 -9 -9 -29 -24 -45 -34 -48 -30 -395 -304 -423 -333 -3 -3 -39 -34 -80
-70 -135 -117 -173 -153 -330 -310 -227 -228 -312 -330 -445 -535 -129 -201
-177 -328 -171 -463 2 -42 9 -90 15 -105 34 -86 129 -173 231 -210 149 -53
289 -71 570 -71 225 0 404 9 575 30 22 3 60 7 85 9 25 2 72 6 105 9 33 4 86
11 117 16 31 6 76 12 100 15 24 2 86 10 138 18 52 9 118 18 145 22 28 3 86 13
130 21 44 8 91 17 105 19 28 4 83 13 120 20 14 2 45 7 70 11 24 3 47 7 50 9 3
1 28 6 55 9 28 4 57 9 65 11 8 2 31 7 50 10 19 3 58 10 85 15 28 5 64 12 80
15 41 7 73 13 190 36 55 11 116 22 135 25 19 3 67 12 105 21 73 15 80 17 160
33 79 16 92 19 236 45 76 14 140 25 143 25 3 0 -24 -48 -61 -107 -103 -168
-253 -414 -253 -418 0 -2 -17 -32 -38 -66 -22 -35 -70 -120 -107 -189 -38 -69
-77 -141 -88 -160 -26 -47 -227 -448 -227 -454 0 -2 -20 -47 -45 -99 -25 -53
-45 -98 -45 -101 0 -3 -11 -29 -24 -58 -31 -67 -58 -130 -61 -143 -2 -5 -15
-41 -30 -80 -78 -205 -155 -444 -171 -533 -3 -15 -10 -32 -15 -38 -7 -8 -6
-14 1 -19 6 -4 9 -3 8 2 -1 4 10 31 25 59 14 28 23 54 20 58 -4 3 -2 6 4 6 5
0 39 62 76 138 100 208 177 371 204 432 94 207 332 672 443 865 13 22 37 65
53 95 17 30 48 84 69 119 21 34 38 67 38 72 0 5 5 9 10 9 6 0 10 5 10 10 0 6
21 45 47 88 96 159 226 369 264 425 21 32 39 61 39 65 0 17 57 71 80 76 14 2
59 12 100 21 41 9 86 18 100 20 52 8 139 26 260 54 69 15 127 27 128 26 5 -4
-39 -138 -48 -148 -4 -5 -54 -28 -111 -51 -117 -49 -178 -77 -229 -108 -38
-22 -95 -68 -85 -68 3 0 2 -8 -3 -17 -11 -19 14 -82 32 -84 6 0 22 -3 36 -5
16 -3 38 5 65 24 64 46 265 136 250 112 -3 -5 -8 -18 -10 -27 -2 -10 -11 -52
-20 -93 -60 -273 -72 -366 -75 -575 -1 -55 -1 -102 0 -105 1 -3 4 -18 6 -35 7
-48 24 -118 36 -150 l12 -29 8 29 c4 17 18 70 32 120 14 49 28 107 31 130 4
22 9 56 11 75 8 50 82 405 99 470 8 30 16 66 18 80 3 14 10 43 15 65 6 22 16
59 22 82 10 41 12 43 78 62 83 23 148 39 199 47 21 3 41 8 44 10 20 12 149 14
187 3 68 -19 73 -44 26 -113 -91 -133 -105 -159 -102 -201 3 -32 10 -44 38
-63 31 -21 43 -23 100 -19 36 3 115 17 177 31 146 34 212 41 363 40 135 -1
192 -13 307 -64 63 -29 163 -112 163 -136 0 -7 4 -14 9 -16 22 -7 35 -144 18
-193 -25 -73 -112 -175 -232 -272 -56 -45 -271 -196 -415 -293 -197 -132 -424
-295 -504 -362 -12 -10 -41 -34 -66 -54 -117 -94 -183 -151 -394 -334 -49 -43
-196 -194 -196 -202 0 -5 -8 -8 -17 -8 -9 0 -13 -3 -10 -7 4 -3 1 -13 -6 -21
-10 -13 -9 -14 3 -7 44 26 246 156 255 163 26 21 321 221 505 342 813 533 987
667 1074 823 47 83 63 164 61 297 -3 203 -73 321 -239 404 -115 58 -302 87
-421 65 -22 -4 -58 -9 -80 -12 -22 -3 -103 -22 -180 -41 -77 -20 -145 -36
-152 -36 -7 0 6 26 27 57 110 157 75 275 -101 345 -74 30 -279 30 -387 1 l-73
-20 7 31 c16 74 30 100 60 108 29 8 308 67 354 74 14 3 39 9 55 14 17 5 68 17
115 25 47 9 155 32 240 52 85 19 164 36 175 38 11 1 34 5 50 9 17 3 40 8 53
10 13 3 31 7 40 10 9 3 28 7 42 10 131 26 369 78 385 83 11 4 25 8 30 9 6 1
35 7 65 13 30 6 69 13 87 15 18 3 40 7 50 10 10 3 29 7 43 10 36 7 57 12 125
29 33 8 80 19 105 23 50 9 59 11 63 13 1 2 13 4 27 6 14 2 77 15 140 30 63 15
125 29 138 31 12 2 33 6 47 9 14 3 37 7 53 10 15 3 41 8 57 12 17 3 37 7 45 8
8 1 35 8 60 15 25 6 54 14 65 16 11 2 56 11 100 20 44 9 91 18 105 20 14 2 93
19 175 38 83 19 166 37 185 40 30 5 149 28 215 42 11 2 29 6 40 8 11 2 58 13
105 24 47 11 105 23 130 27 24 4 47 8 50 10 3 2 23 6 45 9 44 7 94 16 110 20
12 3 82 17 108 22 10 2 26 5 35 8 9 3 34 7 56 11 21 3 41 7 45 10 4 2 18 6 32
9 13 3 35 8 49 11 14 3 34 8 45 9 36 7 89 16 165 31 84 16 135 26 165 30 11 2
101 19 200 39 99 19 196 37 215 41 19 3 55 9 80 15 25 5 83 16 130 25 117 21
136 24 168 30 39 8 252 46 287 52 63 10 70 11 70 13 0 2 34 9 72 14 37 6 137
24 173 32 14 3 43 7 66 9 22 2 56 7 75 11 19 3 45 8 59 9 47 7 85 13 230 40
80 15 156 29 170 30 85 9 149 19 260 41 69 14 134 28 145 30 11 2 31 6 45 9
14 2 41 7 60 10 43 7 200 44 220 52 8 3 23 8 33 10 30 5 57 23 56 36 0 9 -2 9
-5 0 -4 -8 -13 -9 -28 -3 -15 5 -27 5 -34 -2 -6 -6 -12 -6 -16 0 -4 7 -17 7
-35 2 -15 -4 -33 -5 -39 -1 -12 7 -41 7 -157 -4 -44 -4 -102 -8 -130 -10 -161
-11 -227 -18 -300 -29 -16 -3 -52 -7 -80 -10 -27 -3 -61 -8 -75 -10 -14 -3
-54 -7 -88 -10 -35 -3 -67 -8 -71 -11 -4 -2 -32 -7 -62 -9 -30 -3 -65 -8 -79
-10 -14 -3 -42 -7 -62 -10 -63 -10 -109 -17 -132 -22 -11 -2 -39 -7 -61 -10
-22 -2 -51 -7 -65 -9 -14 -2 -43 -6 -65 -10 -23 -3 -52 -7 -65 -10 -27 -5
-117 -21 -165 -29 -16 -3 -41 -7 -55 -10 -14 -4 -43 -8 -65 -11 -22 -2 -49 -6
-60 -8 -18 -4 -89 -16 -180 -32 -16 -3 -55 -10 -85 -15 -30 -6 -66 -12 -80
-14 -14 -3 -41 -8 -60 -11 -19 -4 -44 -9 -55 -10 -11 -2 -20 -4 -20 -5 0 -1
-14 -3 -30 -5 -17 -3 -64 -11 -105 -20 -41 -9 -91 -18 -110 -21 -19 -2 -55 -9
-80 -14 -25 -5 -58 -12 -75 -15 -16 -3 -39 -7 -50 -9 -11 -2 -40 -7 -65 -12
-51 -9 -59 -11 -62 -14 -2 -1 -10 -3 -18 -5 -8 -1 -40 -8 -70 -14 -67 -14 -88
-18 -131 -25 -19 -3 -45 -8 -59 -11 -41 -9 -127 -25 -157 -30 -33 -5 -68 -12
-91 -19 -9 -3 -35 -8 -57 -11 -22 -4 -51 -8 -65 -11 -14 -3 -36 -7 -50 -10
-14 -3 -34 -6 -45 -8 -11 -2 -21 -5 -22 -6 -2 -1 -11 -3 -20 -5 -10 -1 -29 -5
-43 -8 -14 -4 -42 -9 -64 -12 -21 -3 -41 -7 -45 -9 -3 -2 -24 -7 -46 -10 -22
-4 -56 -11 -75 -16 -19 -5 -51 -12 -70 -15 -19 -3 -55 -11 -80 -16 -25 -6 -59
-12 -76 -13 -16 -2 -39 -6 -50 -10 -19 -6 -312 -63 -369 -72 -16 -3 -46 -10
-65 -16 -19 -6 -46 -13 -60 -14 -14 -2 -54 -10 -90 -18 -71 -16 -106 -23 -160
-32 -19 -3 -43 -7 -52 -10 -10 -3 -30 -7 -45 -10 -16 -2 -39 -7 -53 -10 -14
-3 -36 -8 -49 -10 -12 -3 -53 -12 -90 -20 -36 -9 -75 -18 -86 -20 -65 -13
-183 -36 -200 -39 -11 -2 -30 -6 -42 -9 -13 -4 -31 -8 -40 -10 -17 -4 -145
-32 -188 -42 -11 -2 -45 -8 -75 -14 -80 -15 -87 -16 -180 -38 -70 -17 -194
-43 -318 -67 -13 -2 -32 -7 -43 -10 -27 -9 -24 1 11 38 17 18 38 49 48 69 21
45 28 47 35 9 8 -39 58 -62 113 -52 40 8 154 69 154 83 0 5 5 8 11 8 6 0 26
12 44 28 63 53 118 97 134 106 9 5 18 12 21 16 8 10 169 123 230 162 80 50
268 148 390 203 133 59 201 90 270 123 126 58 192 120 152 141 -22 11 -105 7
-162 -9 -25 -7 -53 -14 -64 -16 -41 -8 -162 -49 -231 -79 -16 -8 -52 -22 -80
-33 -79 -32 -305 -152 -337 -180 -10 -8 -18 -11 -18 -6 0 5 -4 4 -8 -2 -4 -6
-29 -25 -57 -44 -66 -44 -187 -131 -203 -148 -8 -7 -30 -25 -50 -40 -21 -15
-39 -29 -42 -32 -16 -18 -130 -100 -139 -100 -6 0 -6 11 0 33 5 17 11 44 14
58 8 43 75 242 87 256 6 7 8 13 4 13 -4 0 0 12 7 28 7 15 13 34 12 42 -1 8 -3
22 -3 31 -4 40 -95 19 -105 -24 -3 -12 -24 -74 -47 -137 -23 -63 -44 -125 -46
-137 -2 -12 -8 -32 -13 -45 -8 -20 -10 -17 -10 20 -1 23 -1 44 -1 47 -1 3 -8
24 -16 47 -9 24 -17 48 -18 53 -6 27 -61 120 -104 178 -60 78 -131 147 -180
172 -20 11 -39 22 -42 25 -17 17 -108 23 -155 10 -43 -12 -124 -79 -180 -150
-120 -150 -322 -564 -439 -899 -24 -69 -44 -106 -53 -98 -2 2 -40 -4 -86 -15
-67 -15 -166 -36 -297 -63 -14 -3 -100 -18 -110 -20 -3 0 -11 -4 -17 -8 -19
-12 -16 -1 13 43 22 32 37 42 92 60 72 23 125 49 187 89 65 42 76 52 175 151
102 103 186 220 249 349 62 127 69 185 28 229 -33 35 -99 27 -174 -23 -86 -56
-264 -241 -387 -400 -59 -77 -113 -147 -119 -155 -7 -9 -34 -48 -61 -88 -27
-40 -54 -73 -60 -73 -68 -10 -166 10 -242 49 -54 28 -128 90 -163 138 -62 84
-97 230 -71 293 22 53 -10 94 -66 83 -41 -8 -58 -96 -42 -218 9 -60 60 -176
104 -231 41 -52 134 -133 153 -133 6 0 11 -3 11 -8 0 -8 31 -23 100 -47 45
-17 57 -20 117 -31 l33 -6 -37 -53 c-32 -45 -44 -54 -87 -66 -28 -7 -59 -13
-68 -12 -10 0 -18 -4 -18 -8 0 -5 -3 -8 -7 -7 -7 2 -89 -11 -118 -18 -12 -3
-57 -12 -100 -19 -16 -3 -66 -14 -110 -25 -44 -10 -93 -21 -110 -24 -16 -2
-55 -9 -85 -16 -90 -18 -114 -22 -140 -25 -14 -1 -32 -5 -40 -8 -8 -3 -31 -8
-51 -11 -20 -3 -42 -7 -50 -10 -8 -3 -33 -7 -57 -10 -24 -3 -60 -10 -80 -15
-20 -6 -55 -12 -77 -15 -22 -2 -47 -7 -55 -10 -8 -3 -33 -8 -55 -10 -22 -3
-40 -5 -40 -7 0 -1 -9 -3 -20 -4 -11 -1 -58 -10 -105 -18 -47 -9 -98 -19 -115
-21 -16 -3 -55 -10 -85 -16 -30 -6 -73 -13 -95 -15 -43 -5 -86 -11 -125 -19
-42 -8 -212 -35 -260 -41 -25 -3 -74 -11 -110 -16 -36 -6 -78 -12 -95 -14 -16
-2 -50 -6 -75 -9 -92 -13 -116 -16 -180 -22 -76 -7 -125 -12 -125 -14 0 -1
-22 -3 -50 -5 -27 -2 -72 -7 -100 -10 -179 -19 -561 -26 -680 -13 -187 21
-299 73 -343 159 -19 36 -22 121 -7 185 31 136 203 402 399 619 113 125 287
295 457 446 91 81 281 237 391 321 155 118 451 329 550 393 181 116 374 238
413 260 28 17 58 34 67 40 50 30 163 93 238 133 47 25 90 48 95 52 31 24 459
230 605 292 52 22 115 50 140 61 25 11 74 31 110 44 36 13 74 28 85 33 11 5
58 23 105 40 47 17 94 35 105 40 23 11 304 103 321 106 7 1 38 11 70 22 59 20
102 32 139 39 11 2 41 10 66 18 25 9 60 17 77 18 18 1 32 5 32 8 0 3 6 6 13 6
17 0 82 12 157 28 48 10 160 14 165 5 8 -14 -194 -158 -310 -220 -22 -12 -60
-33 -85 -47 -100 -55 -350 -182 -350 -176 0 3 -6 0 -13 -6 -8 -6 -55 -31 -105
-56 -91 -45 -128 -79 -117 -106 7 -18 45 -43 45 -29 0 5 5 10 10 10 16 0 569
278 580 291 3 3 43 28 90 54 188 106 373 250 386 301 19 73 -31 108 -154 109
-46 0 -84 -1 -85 -2z m700 -1879 c80 -46 160 -159 203 -288 19 -55 22 -80 17
-149 -10 -156 -79 -267 -202 -324 -133 -61 -344 -27 -435 69 -33 35 -57 90
-54 125 1 18 25 80 53 139 63 128 120 188 228 240 74 36 94 64 56 78 -18 7
-77 -10 -113 -33 l-24 -16 19 34 c11 19 48 63 82 99 58 59 65 63 95 57 18 -4
52 -18 75 -31z m-727 -376 c-51 -95 -140 -216 -211 -285 -83 -81 -209 -176
-209 -158 0 7 156 215 207 275 59 71 234 242 240 236 3 -3 -9 -34 -27 -68z
m295 -409 c57 -36 70 -41 133 -53 24 -4 41 -10 39 -12 -4 -4 -163 -38 -229
-48 -15 -3 -45 -10 -68 -17 -22 -7 -42 -10 -44 -8 -3 2 12 55 32 117 l37 113
30 -33 c17 -18 49 -45 70 -59z"/>
<path d="M10335 9156 c-69 -17 -148 -53 -225 -100 -98 -61 -117 -74 -233 -166
-322 -253 -422 -315 -525 -327 -51 -6 -53 -5 -90 34 -90 97 -123 92 -501 -78
-86 -40 -223 -80 -270 -81 -114 0 -157 67 -127 202 24 109 138 227 255 265
100 33 275 17 264 -23 -9 -36 -142 -159 -156 -145 -4 3 -7 2 -7 -4 0 -13 -88
-52 -132 -58 -18 -2 -60 -7 -93 -11 -59 -6 -75 -15 -75 -44 0 -37 18 -45 103
-47 146 -3 284 57 414 180 160 152 62 300 -197 299 -138 -1 -216 -28 -320
-111 -64 -52 -77 -65 -121 -134 -68 -106 -93 -242 -61 -336 32 -96 142 -165
256 -162 94 2 159 21 391 116 272 111 247 105 290 62 89 -89 240 -80 428 27
80 46 170 111 329 239 183 146 345 245 437 266 32 7 46 5 70 -10 17 -10 31
-22 31 -26 0 -9 44 -61 96 -115 20 -20 62 -50 95 -68 50 -27 66 -31 100 -25
22 4 43 13 46 21 8 22 -15 68 -45 89 -28 20 -121 113 -204 204 -66 72 -128 91
-223 67z"/>
<path d="M7934 9100 c-45 -18 -36 -97 13 -119 25 -11 59 -1 75 23 15 22 7 63
-15 84 -25 23 -39 26 -73 12z"/>
<path d="M7966 8704 c-20 -19 -36 -40 -36 -45 0 -20 21 -49 35 -49 11 0 14 -9
10 -37 -11 -74 -36 -179 -60 -248 -45 -128 -43 -163 12 -177 44 -12 75 37 122
187 34 111 40 143 47 230 8 114 -11 163 -64 170 -24 3 -38 -4 -66 -31z"/>
<path d="M9915 7920 c-53 -21 -270 -323 -328 -455 -54 -125 -31 -200 68 -219
115 -23 135 -37 162 -114 14 -43 9 -71 -28 -151 -92 -199 -319 -348 -457 -300
-41 14 -46 32 -21 89 42 98 167 182 274 185 92 2 124 29 109 89 -22 87 -225
63 -352 -41 -117 -95 -159 -169 -160 -278 0 -53 3 -60 42 -100 47 -49 96 -66
190 -68 69 -1 111 7 176 30 63 23 167 91 218 143 41 42 42 42 42 17 0 -51 51
-74 85 -37 16 18 18 34 12 130 0 8 3 56 7 105 5 50 10 133 11 185 3 113 2 107
18 107 27 0 248 37 407 67 14 3 63 12 110 20 47 8 146 26 220 40 144 27 154
29 240 46 30 6 69 13 85 16 54 9 178 33 254 49 100 21 231 73 231 91 0 8 -6
14 -12 15 -7 1 -26 3 -43 5 -137 16 -346 -1 -632 -51 -12 -2 -57 -9 -100 -15
-80 -12 -84 -13 -168 -29 -27 -6 -66 -13 -85 -15 -19 -3 -46 -8 -60 -11 -90
-19 -355 -66 -403 -72 l-49 -5 6 53 c4 30 9 77 12 104 6 64 10 95 20 175 14
115 9 171 -18 191 -25 20 -51 23 -83 9z m-30 -202 c-5 -14 -12 -67 -21 -163
-10 -106 -12 -129 -13 -162 -1 -25 -6 -33 -19 -33 -10 0 -28 -7 -40 -16 -22
-15 -49 -15 -102 0 -8 3 -21 5 -28 5 -9 1 -11 8 -7 24 7 24 113 219 124 227 3
3 14 17 24 32 18 29 77 98 83 98 2 0 1 -6 -1 -12z"/>
<path d="M14567 7364 c-1 -1 -31 -4 -67 -8 -36 -3 -76 -8 -90 -10 -35 -6 -86
-14 -145 -21 -66 -8 -307 -57 -523 -106 -95 -21 -183 -41 -195 -43 -32 -6
-156 -35 -197 -47 -19 -5 -91 -22 -160 -38 -143 -34 -670 -167 -715 -181 -16
-5 -41 -11 -55 -14 -31 -6 -522 -142 -685 -189 -508 -149 -1005 -308 -1556
-498 -437 -150 -634 -221 -1024 -369 -148 -56 -317 -120 -375 -142 -58 -22
-114 -44 -125 -49 -11 -5 -128 -51 -260 -103 -471 -184 -530 -207 -550 -216
-11 -4 -36 -15 -55 -23 -19 -8 -73 -29 -120 -46 -47 -18 -98 -38 -115 -46 -54
-24 -304 -115 -368 -134 -88 -27 -107 -30 -107 -21 0 12 129 181 198 259 149
169 383 404 586 586 43 39 92 83 110 98 17 16 53 48 80 70 27 23 54 47 61 54
7 6 32 29 57 50 95 82 161 139 182 156 11 10 41 35 66 57 47 40 76 64 107 90
119 99 149 124 153 129 3 3 28 24 55 46 28 22 55 44 61 50 6 5 37 33 70 60
122 105 161 140 222 204 122 127 156 198 127 266 -7 19 -24 39 -37 46 -12 6
-25 15 -28 19 -6 10 -74 22 -125 23 -38 0 -124 -7 -208 -18 -91 -12 -328 -66
-597 -135 -80 -21 -226 -57 -325 -80 -195 -46 -289 -76 -280 -91 4 -5 2 -9 -3
-9 -20 0 -20 -55 0 -95 34 -68 29 -266 -9 -355 -3 -8 -7 -17 -8 -20 -20 -58
-39 -58 -79 2 -43 63 -79 88 -129 88 -36 0 -151 -33 -172 -50 -5 -4 -41 -18
-78 -30 -58 -20 -71 -21 -92 -10 -13 7 -25 22 -27 34 -9 58 46 184 115 262 52
59 76 72 93 50 6 -9 28 -19 47 -23 30 -5 40 -1 66 26 48 49 36 121 -24 141
-43 14 -143 5 -191 -17 -108 -50 -226 -227 -236 -353 -1 -17 -6 -34 -10 -36
-5 -3 -6 -9 -3 -14 2 -4 7 -25 10 -46 8 -54 53 -115 100 -138 57 -27 125 -25
215 9 73 26 183 65 187 65 2 0 25 -21 51 -46 93 -92 168 -97 244 -17 22 23 56
84 64 116 1 4 2 8 3 10 2 1 5 20 8 42 11 79 4 190 -15 260 -21 75 -20 80 29
88 13 3 74 17 134 31 61 15 119 28 130 30 11 2 137 34 280 69 143 36 274 68
290 71 17 3 50 10 75 16 25 6 56 13 70 15 41 6 103 16 130 21 14 3 71 7 128
11 100 6 102 5 102 -16 0 -24 -153 -184 -289 -301 -41 -36 -85 -75 -98 -87
-13 -11 -41 -35 -63 -53 -21 -17 -49 -41 -62 -52 -13 -10 -34 -29 -48 -40 -14
-12 -39 -33 -56 -47 -16 -14 -45 -37 -64 -51 -18 -14 -38 -30 -44 -35 -6 -6
-49 -42 -96 -80 -47 -39 -90 -74 -96 -80 -6 -5 -33 -28 -59 -50 -27 -22 -53
-44 -59 -50 -6 -5 -47 -41 -91 -80 -150 -132 -136 -119 -343 -313 -104 -98
-220 -213 -367 -365 -204 -212 -325 -384 -325 -463 0 -40 32 -86 65 -93 25 -6
99 -5 145 1 121 16 444 127 1090 373 212 81 482 183 600 227 118 44 249 93
291 108 43 16 191 70 330 121 140 50 315 112 389 139 449 161 1165 398 1675
553 714 217 1316 385 1885 526 135 33 270 68 300 76 44 12 255 65 320 80 143
33 206 50 262 70 37 13 95 31 130 40 35 9 72 19 83 24 11 5 31 13 45 18 90 37
110 47 110 57 0 9 -93 18 -103 10z"/>
</g>
</svg>
